[Intro] 
 
E|-------5-7-----7-|-8-----8-2-----2-|-0---------0-----|-----------------|
B|-----5-----5-----|---5-------3-----|---1---1-----1---|-0-1-1-----------|
G|---5---------5---|-----5-------2---|-----2---------2-|-0-2-2-----------|
D|-7-------6-------|-5-------4-------|-3---------------|-----------------|
A|-----------------|-----------------|-----------------|-2-0-0---0--/8-7-|
E|-----------------|-----------------|-----------------|-----------------|
 
E|---------7-----7-|-8-----8-2-----2-|-0---------0-----|-----------------|
B|-------5---5-----|---5-------3-----|---1---1-----1---|-0-1-1-----------|
G|-----5-------5---|-----5-------2---|-----2---------2-|-0-2-2-----------|
D|---7-----6-------|-5-------4-------|-3---------------|-----------------|
A|-0---------------|-----------------|-----------------|-2-0-0-------0-2-|
E|-----------------|-----------------|-----------------|-----------------|
 
E|-------0-2-----2-|-0-----0----------|---------3-----3-|-3^2-2-2---------|
B|-----------3-----|---1-----0h1------|-1-----1---0-----|-----3-3---------|
G|-----0-------2---|-----2-------2----|---0---------0---|-----------------|
D|---2-----0-------|-3----------------|-----2-----------|-0---0-0---------|
A|-3---------------|---------0----0-2-|-3---------------|-------------0-2-|
E|-----------------|------------------|---------3-------|-----------------|
                                                              
E|---------2-----2-|-0-----0----------|---------------2-|-0-0-0-----------|
B|-------1---3-----|---1-----0-1------|-------1-----3---|-1-1-1-----------|
G|-----0-------2---|-----2-------2----|-----0-----2-----|-2-2-2-----------|
D|---2-----0-------|-3----------------|---2-----0-------|-3-3-3-----------|
A|-3---------------|---------0----0-2-|-3---------------|-----------------|
E|-----------------|------------------|-----------------|-----------------|
                                                              

[Verse]
 
E|-------5-7-----7-|-8-----8-2-----2-|-0---------0-----|-----------------|
B|-----5-----5-----|---5-------3-----|---1---1-----1---|-0-1-1-----------|
G|---5---------5---|-----5-------2---|-----2---------2-|-0-2-2-----------|
D|-7-------6-------|-5-------4-------|-3---------------|-----------------|
A|-----------------|-----------------|-----------------|-2-0-0-----------|
E|-----------------|-----------------|-----------------|-----------------|
  Theres a lady whos         glitter            buying a    heaven When she
 
E|-------5-7-----7-|-8-----8-2-----2-|-0---------0-----|-----------------|
B|-----5-----5-----|---5-------3-----|---1---1-----1---|-0-1-1-----------|
G|---5---------5---|-----5-------2---|-----2---------2-|-0-2-2-----------|
D|-7-------6-------|-5-------4-------|-3---------------|-----------------|
A|-----------------|-----------------|-----------------|-2-0-0-------0-2-|
E|-----------------|-----------------|-----------------|-----------------|
  gets there        stores are       ord she can get    came for
 
E|---------2-----2-|-0-----0---------------|---------3-----3-|-3p2-2-2-------|
B|-------1---3-----|---1----1--0-1---------|-1---1-1---0-----|-3---3-3-------|
G|-----0-------2---|-----2---------2-------|---0-0-------0---|-2-----2-------|
D|---2-----0-------|-3---------------------|-----2-----------|-0-----0-------|
A|-3---------------|-----------0------0-2--|-3---------------|-----------0-2-|
E|-----------------|-----------------------|---------3-------|---------------|
  Oooh              oooh           and shes buying a          heaven   Theres
 
E|-------0-2-----2-|-0-----------------|---------2-----2-|-0-0-0-----------|
B|-----------3-----|---1--1--0 1-------|-1-----1---3-----|-1-1-1-----------|
G|-----0-------2---|-----2-------2-----|---0---------2---|-2-2-2-----------|
D|---2-----0-------|-3-----------------|-----2---0-------|-3-3-3-----------|
A|-3---------------|---------------0-2-|-3---------------|-----------------|
E|-----------------|-------------------|-----------------|-----------------|
  sign on     she  wants         you   know         two   meanings    In a
 
E|-------5-7-----7-|-8-----8-2-----2-|-0---0-----0-----|-----------------|
B|-----5-----5-----|---5-------3-----|---1---1-----1---|-0-1-1-----------|
G|---5---------5---|-----5-------2---|---------------2-|-0-2-2-----------|
D|-7-------6-------|-5-------4-------|-3---------------|-----------------|
A|-----------------|-----------------|-----------------|-2-0-0---0--/8-7-|
E|-----------------|-----------------|-----------------|-----------------|
  tree    theres a song        times all of our    mis  given
 
E|--------5-7---7---|----8-------2------|----0-------0----|-----------------|
B|-----------5-5-5--|---5-5-----3-3-----|---1--1----1-1---|-0-1-1-------3---|
G|------5-----5---5-|--5---5---2---2--2-|--2----2--2---2--|-0-2-2-------0---|
D|----7-----6-------|-5-----5-4-----4---|-3-------3-----3-|-------------0---|
A|-0-0--------------|-------------------|-----------------|-2-0-0-------2---|
E|------------------|-------------------|-----------------|-----------------|
 

[Chorus]

E|-3---3-3-3--3--0-0-|-2-------2-------|-3--3-3-3--3--0-0---7-|--5---3---5----|
B|-1---1-1-1--1--1-3-|-3--3--3---3-0-0-|-1--1-1-1--1--1-1---8-|--7---5---7----|
G|-2---2-2-2--2--2-2-|-2-----------0-0-|-2--2-2-2--2--2-2---9-|--7---5---7----|
D|-2---2-2-2--2--2---|---0-------------|-2--2-2-2--2--2-2---0-|-------------0-|
A|-------------------|-----------------|----------------------|-------------0-|
E|-------------------|-----------------|----------------------|---------------|
                      Oooh it makes me wonder

E|-3---3-3-3--3--0-0-|-2-------2-------|-3--3-3-3--3--0-0---7-|--5---3---5----|
B|-1---1-1-1--1--1-3-|-3--3--3---3-0-0-|-1--1-1-1--1--1-1---8-|--7---5---7----|
G|-2---2-2-2--2--2-2-|-2-----------0-0-|-2--2-2-2--2--2-2---9-|--7---5---7----|
D|-2---2-2-2--2--2---|---0-------------|-2--2-2-2--2--2-2---0-|-------------0-|
A|-------------------|-----------------|----------------------|-------------0-|
E|-------------------|-----------------|----------------------|---------------|
   oooh               makes me wonder                                theres a
 
E|------------------|------------------------|-----------------0--|--0--------|
B|---------1------3-|-0h1----------1---------|-------1---------0--|--1--------|
G|-------0------0---|-----2-------2----------|-----0--------0--2--|--2--------|
D|-----2------0-----|---------2--------------|---2--------0----3--|--2--------|
A|-0h3------2-------|-------0----------0--2--|-3--------2------3--|--0---0-2--|
E|------------------|------------------------|-----------------1--|-----------|
  feeling      when  look to             my    spirit          leaving  in my
  whispered          all call the tune then the piper will      to  reason  &
 
E|----------------|--------------------|----------------0-|--0------|---------|
B|-------1------3-|-0h1---------1------|-------1--------1-|--1------|----1---3|
G|-----0------0---|-----2-----2--------|-----0-------0--2-|--2------|---0---0-|
D|---2------0-----|---------2----------|---2-------0----3-|--2------|--2---0--|
A|-3------2-------|-------0------0--2--|-3-------2------3-|--0--0-2-|-3---2---|
E|----------------|--------------------|----------------1-|---------|---------|
  thoughts I        smoke through         voices of       looking  [goto %]
  new day           those who             forests will  laugh - ter
 
E|-3--3-3-3--3--0-0---7-|--5---3---5----|-3--3-3-3--3--0-0-|-2-----2-2-2-2-0-0-|
B|-1--1-1-1--1--1-1---8-|--7---5---7----|-1--1-1-1--1--1-3-|-3-----3-3-3-3-0-0-|
G|-2--2-2-2--2--2-2---9-|--7---5---7----|-2--2-2-2--2--2-0-|-2-----2-2-2-2-0-0-|
D|-2--2-2-2--2--2-2---0-|----------0----|-2--2-2-2--2--2---|----0--0-----------|
A|----------------------|-------------0-|------------------|-------------------|
E|----------------------|---------------|------------------|-------------------|
                                                            whoah
E|-3--3-3-3--3--0-0---7-|--5---3---5----|
B|-1--1-1-1--1--1-1---8-|--7---5---7----|
G|-2--2-2-2--2--2-2---9-|--7---5---7----|
D|-2--2-2-2--2--2-2---0-|----------0----|
A|----------------------|-------------0-|
E|----------------------|---------------|


[Verse] 
 
E|------------------|------------------------|-----------------0--|--0--------|
B|---------1------3-|-0h1----------1---------|-------1---------1--|--1--------|
G|-------0------0---|-----2-------2----------|-----0--------0--2--|--2--------|
D|-----2------0-----|---------2--------------|---2--------0----3--|--2--------|
A|-0h3------2-------|-------0----------0--2--|-3--------2------3--|--0---0-2--|
E|------------------|------------------------|-----------------1--|-----------|
  If theres a bust   'edge row dont            its just a           Queen
  Yes there are       go by but                 and theres still     your on
 
E|----------------|-3--3-3-3--3--0-0-|-2-----2-2-2-2-----|-3--3-3-3--3--0-7-|
B|-------1------0-|-1--1-1-1--1--1-3-|-3-----3-3-3-3-0-0-|-1--1-1-1--1--1-8-|
G|-----0------0---|-2--2-2-2--2--0-0-|-2--2--2-2-2-2-0-0-|-0--0-2-0--0--0-9-|
D|---2------0-----|-2--2-2-2--2------|----0--0-----------|-2--2-2-2--2------|
A|-3------2-------|------------------|-------------------|------------------|
E|----------------|------------------|-------------------|------------------|
                                          and it    won  der
 
E|-5--3--5--|-3--3-3-3--3--0-0-|-2-----2-2-2-2-0-0-|-3--3-3-3--3--0-7-|-5--3--5-|
B|-7--5--7--|-1--1-1-1--1--1-3-|-3--3--3-3-3-3-0-0-|-1--1-1-1--1--1-8-|-7--5--7-|
G|-7--5--7--|-2--2-2-2--2--0-0-|-2--2--2-2-2-2-0-0-|-0--0-2-0--0--0-9-|-7--5--7-|
D|----------|-2--2-2-2--2------|-------------------|-2--2-2-2--2------|---------|
A|--------0-|------------------|-------------------|------------------|--------0|
E|----------|------------------|-------------------|------------------|---------|
                                oooh
 
E|------------------|------------------------|-----------------0--|--0--------|
B|---------1------3-|-0h1----------1---------|-------1---------1--|--1--------|
G|-------0------0---|-----2-------2----------|-----0--------0--2--|--2--------|
D|-----2------0-----|---------2--------------|---2--------0----3--|--2--------|
A|-0h3------2-------|-------0----------0--2--|-3--------2------3--|--0---0-2--|
E|------------------|------------------------|-----------------1--|-----------|
  Your head is        wont go                  the pipers           him
  Dear lady can        blow                     your stairw     whispering wind
                                                          
E|-----3--------3---|--2---------0-2--|-3----0-2--3--0-2--|---3-3-2---------|
B|---5--------3---4-|--3-------3-3-3--|-3--3-3-3--3--3-3--|---3-3-3-3-------|
G|-5-----5--4-------|--2-------2-2-2--|-2--2-2-2--2--2-2--|---2-2-2-0-------|
D|------------------|-----------------|-0--0-0-0--0--0-0--|---0-0-0-2-------|
A|------------------|-----------------|-------------------|---------3-------|
E|------------------|-----------------|-------------------|-----------------|
 
E|---2-2-2---|---2--2-2--0-0-0-2-|-3-0-2--0-2-|-3-3-3-3-|---2--2-2-0-0-|-0-2-2-0-|
B|-3-3-3-3-1-|-1-3--3-3--3-3-3-3-|-3-3-3--3-3-|-3-3-3-3-|-3-3--3-3-3-3-|-3-3-3-3-|
G|-0-0-0-0-0-|-0-0--0-0------2-2-|-2-2-2--2-2-|-2-2-2-0-|-0-0--0-0-0-0-|-0-0-0-0-|
D|---------2-|-----------0-0-0-0-|-0-0-0--0-0-|-0-0-0-2-|-2------------|---------|
A|---------3-|-------------------|------------|-------3-|--------------|---------|
E|-----------|-------------------|------------|---------|--------------|---------|
 

[Solo]
 
 Am                   Am7   Fmaj7
E|----------5---------------|------------------8--8-|
B|------------8-5-----------|-------------8b10------|
G|---7b9----------7-5---7p5-|-----------------------|
D|--------------------7-----|-7p5-------------------|
A|--------------------------|----8------------------|
E|--------------------------|-----------------------|

  Am             Am7         Fmaj7
E|--8b10---8--5-------8--10-|-8-----------------------5-------|
B|---------------8b10-------|---10-8----8h10------------8-5---|
G|--------------------------|--------10-----------7b9-------7-|
D|--------------------------|---------------------------------|
A|--------------------------|---------------------------------|
E|--------------------------|---------------------------------|

  Am             Am7          Fmaj7
E|----------------------------|----5------------------------|
B|----------------------------|------8-5--------------------|
G|-5---7p5------------5---5-5-|----------7-5--7p5-----------|
D|---7-----7-5---5-7----7-----|-5------------7----7p5-7p5---|
A|-------------7--------------|---------------------------8-|
E|----------------------------|-----------------------------|
 
  Am             Am7
E|---------------------------------------------|
B|------------------------------------------13-|
G|---------10-------------------12----12-14----|
D|------10----12-10----10-12/14----14----------|
A|-8/12-------------12-------------------------|
E|---------------------------------------------|

  Fmaj7
E|------------------------15b17-15-12----------------|
B|--15b17-15-13--15-13-13-------------15b17-15-13----|
G|------------------------------------------------14-|
D|---------------------------------------------------|
A|---------------------------------------------------|
E|---------------------------------------------------|

  Am                                        Am7
E|----------------------------------------------------------------------------|
B|-13-15b17b15p13----13-15b17b15p13----13---15b17b15p13----13--15b17b15p13----|
G|----------------14----------------14------------------14-----------------14-|
D|----------------------------------------------------------------------------|
A|----------------------------------------------------------------------------|
E|----------------------------------------------------------------------------|

  Fmaj7
E|----------------------------------------------------------------------------|
B|-13-15b17b15p13----13--15b17b15p13----13--15b17b15p13----13--15b17b15p13----|
G|----------------14-----------------14-----------------14-----------------14-|
D|----------------------------------------------------------------------------|
A|----------------------------------------------------------------------------|
E|----------------------------------------------------------------------------|
  
  Am                       Am7            
E|------------------------------------------15b17--|
B|-13--15b17b15p13----13---15b17b15p13----13-------|
G|-----------------14------------------14----------|
D|-------------------------------------------------|
A|-------------------------------------------------|
E|-------------------------------------------------|

  Fmaj7
E|-b17b15-12---12--------------------------------15--|
B|-----------15---15--13----13-15-13---13--15b17-----|
G|-----------------------14----------14--------------|
D|---------------------------------------------------|
A|---------------------------------------------------|
E|---------------------------------------------------|
                                     
  Am          Am7              Fmaj7
E|-----------------------------|-----------17----------------------------------|
B|-15b17b15p13----13/12--13/10-|--------20----20-20----------------------------|
G|-------------14--------------|--19b21-21----------19b21b19p17---19--17----19-|
D|-----------------------------|--------------------------------19-------19----|
A|-----------------------------|-----------------------------------------------|
E|-----------------------------|-----------------------------------------------|

  Am       Am7         Fmaj7                             Am    Am7
E|--------------------|--------------------------------|--------------|
B|--------------------|--------------------------------|--------------|
G|-19b21--13/12 13/10-|--14b17--14b17-14--12--14--12-12|b14-----------|
D|--------------------|--------------------------------|--------------|
A|--------------------|--------------------------------|--------------|
E|--------------------|--------------------------------|--------------|

  Fmaj7                               Am        Am7
E|-----------------------------------|----------8/7--8/5--|
B|-----------------------------------|--------------------|
G|-10b14----10b12b10-9-7----7--------|-7-9-7--------------|
D|-----------------------10----10----|-------10-7---------|
A|-----------------------------------|--------------------|
E|-----------------------------------|--------------------|
 
  Fmaj7
E|----20-p17------20-p17------20-p17------20-p17------20-p17-----20b22-|
B|-17--------17----------17----------17----------17----------17--------|
G|---------------------------------------------------------------------|
D|---------------------------------------------------------------------|
A|---------------------------------------------------------------------|
E|---------------------------------------------------------------------|
 

[Chorus/Outro]
 
  Am           G                  F  G   Am           G                F  G
E|-5------------3----------------|-1--3-|-5------------3-------------|--1--3-|
B|-5------------3----------------|-1--3-|-5------------3-------------|--1--3-|
G|-5------------4----------------|-2--4-|-5------------4-------------|--2--4-|
D|-7------------5----------------|-3--5-|-7------------5-------------|--3--5-|
A|-7------------5----------------|-3--5-|-7------------5-------------|--3--5-|
E|-5------------3----------------|-1--4-|-5------------3-------------|--1--4-|
   And as we   wind on down the road       Our shadows taller than our  soul
 
  Am           G               F  G    Am           G
E|-5------------3-------------|-1--3--|-5------------3----------|
B|-5------------3-------------|-1--3--|-5------------3----------|
G|-5------------4-------------|-2--4--|-5------------4----------|
D|-7------------5-------------|-3--5--|-7------------5----------|
A|-7------------5-------------|-3--5--|-7------------5----------|
E|-5------------3-------------|-1--4--|-5------------3----------|
  there walks a lady we all know         who shines w' light and to
 
  F                       G    Am       G
E|--1-----------------------3--|-------------------------------|
B|--1-----------------------3--|-------------------------------|
G|--2-----------------------4--|-------------------------------|
D|--3-----------------------5--|-------------------------------|
A|--3----------3--5h7--5--3-5--|-------------------------------|
E|--1----1-3h5--------------3--|-5---5--------3--3-------------|
  show                          how everything still turns to
 
                       Am           G               F  G    Am     G
E|---------------------5------------3-------------|-1--3--|-5------3----------|
B|---------------------5------------3-------------|-1--3--|-5------3----------|
G|---------------------5------------4-------------|-2--4--|-5------4----------|
D|---------------------7------------5-------------|-3--5--|-7------5----------|
A|-------3--5h7--5--3--7------------5-------------|-3--5--|-7------5----------|
E|-1-3h5---------------5------------3-------------|-1--4--|-5-5----3--3-------|
 gold                and if you listen very hard the tune will   come to u at
  
   F                     G   Am    G     F
E|--1------------------------|----------0-|---0-0-0-0-----|
B|--1------------------------|----------1-|---1-1-1-1-----|
G|--2------------------------|----------2-|---2-2-2-2-----|
D|--3------------------------|----------3-|---3-3-3-3-----|
A|--3----------3--5h7--5--3--|------------|---------------|
E|--1----1-3h5---------------|-5-5--3-3-1-|-1----------5-5|
  last                        when   all __  yeah
 
  Am    G       Fmaj7          Am      Am7/G      Fmaj7
E|-----------0-|-0-0-0-0------|--------8-10-----|-------------------------|
B|-----------1-|-1-1-1-0------|-8/10--------10--|--8h10p10----------3-3---|
G|-----------2-|-2-2-2-0------|-----------------|-----------------5b7-2---|
D|-----------3-|-3-3-3-0------|-----------------|---------------------3---|
A|-------------|--------------|-----------------|-------------------------|
E|-5-5--3-3--1-|--------------|-----------------|-------------------------|
  to be a rock  roll__
  
  Am       Am7/G            Fmaj7              Am        Am7/G
E|----------------------0--|-------------------|-------------------------|
B|----5-------8------10-3--|-----13-------12---|-----13------12------13__|
G|--7b9----10b12--12b14-0--|--15b17----14b16---|--15b17---14b16---15b17__|
D|----------------------0--|-------------------|-------------------------|
A|-------------------------|-------------------|-------------------------|
E|-------------------------|-------------------|-------------------------|

 Fmaj7
E|-----------------------------------------|
B|-13------12-------13------15-------------|
G|_17---14b16----15b17---17b19-------------|
D|-----------------------------------------|
A|-----------------------------------------|
E|-----------------------------------------|
 
  Am        Am7/G         Fmaj7
E|----------------------|-0---------------------------------------------|
B|----13------12-----15-|-1----13---------------------------------------|
G|-15b17---14b16--17b19-|-2-15b17---------------------------------------|
D|----------------------|-3---------------------------------------------|
A|----------------------|-----------------------------------------------|
E|----------------------|-----------------------------------------------|
                                  And shes buying a stairway to heaven